---
http_interactions:
- request:
    method: get
    uri: https://api.test.datacite.org/dois/10.0042/foobar3/media
    body:
      encoding: US-ASCII
      string: ''
    headers:
      User-Agent:
      - Mozilla/5.0 (compatible; Maremma/4.1.1; +https://github.com/datacite/maremma)
      Accept:
      - text/html,application/json,application/xml;q=0.9, text/plain;q=0.8,image/png,*/*;q=0.5
  response:
    status:
      code: 200
      message: ''
    headers:
      Date:
      - Thu, 06 Sep 2018 08:26:45 GMT
      Content-Type:
      - application/json; charset=utf-8
      Connection:
      - keep-alive
      Status:
      - 200 OK
      X-Anonymous-Consumer:
      - 'true'
      Cache-Control:
      - max-age=0, private, must-revalidate
      Vary:
      - Accept-Encoding, Origin
      X-Request-Id:
      - 1dcdc705-77b5-4b9f-8844-d8d750acca66
      Etag:
      - W/"54f27f5b8e8394a42b2ddefa236e1731"
      X-Runtime:
      - '0.035094'
      X-Powered-By:
      - Phusion Passenger 5.3.4
      Server:
      - nginx/1.14.0 + Phusion Passenger 5.3.4
    body:
      encoding: ASCII-8BIT
      string: '{"data":[{"id":"0000-0000-0000-0006","type":"media","attributes":{"version":0,"url":"http://example.com","media-type":"text/csv","created":"2012-12-12T13:35:33.000Z","updated":"2012-12-12T13:35:33.000Z"},"relationships":{"doi":{"data":{"id":"10.0042/FOOBAR3","type":"dois"}}}}],"included":[{"id":"10.0042/foobar3","type":"dois","attributes":{"doi":"10.0042/foobar3","identifier":"https://handle.test.datacite.org/10.0042/foobar3","url":"http://example.com","prefix":"10.0042","suffix":"foobar3","author":[],"title":null,"publisher":null,"resource-type-subtype":null,"description":null,"version":null,"metadata-version":0,"schema-version":"http://datacite.org/schema/kernel-4","reason":null,"source":null,"state":"findable","is-active":true,"landing-page":{"status":null,"content-type":null,"checked":null},"published":null,"created":"2012-12-12T13:29:26.000Z","registered":"2012-12-12T13:30:01.000Z","updated":"2018-08-20T10:04:07.000Z","xml":null},"relationships":{"client":{"data":{"id":"datacite.datacite","type":"clients"}},"resource-type":{"data":null},"media":{"data":[{"id":"0000-0000-0000-0006","type":"media"}]}}}],"meta":{"total":1,"total-pages":1,"page":1},"links":{"self":"https://api.test.datacite.org/dois/10.0042/foobar3/media","next":"https://api.test.datacite.org/media?page%5Bnumber%5D=1"}}'
    http_version:
  recorded_at: Thu, 06 Sep 2018 08:26:45 GMT
recorded_with: VCR 3.0.3
